version 4
0.02
config_files.three_type.deterministic_010_match
0.02,0.023515344758868073,0.028350992110849585,0.03532942750500425,0.046045688554969565,0.063908053641724638,0.09709709747370765,0.16771683737476764,0.33585266699568073,0.67042666228094983,0.9346764735991725,0.99262928864010969
