# s,h,saturation_min,num_saturated,saturation_exp,fixation_exp,saturation_max,extinction_exp,prob_of_saturation,extinction_min,extinction_max,num_runs,num_extinct,simple_threshold_exp
   0.10000,   0.00000,9223372036854775808.00000,   0.00000,  -1.00000, 583.45580,  -1.00000, 583.45580,   0.00000,   1.00000,4332.00000,5000.00000,5000.00000,  -1.00000
   0.10000,   0.10000,9223372036854775808.00000,   0.00000,  -1.00000,1185.61600,  -1.00000,1185.61600,   0.00000,   1.00000,8974.00000,5000.00000,5000.00000,  -1.00000
   0.10000,   0.20000,9223372036854775808.00000,   0.00000,  -1.00000,2568.64820,  -1.00000,2568.64820,   0.00000,   1.00000,21100.00000,5000.00000,5000.00000,  -1.00000
   0.10000,   0.30000,9223372036854775808.00000,   0.00000,  -1.00000,       nan,  -1.00000,  -1.00000,       nan,9223372036854775808.00000,  -1.00000,   0.00000,   0.00000,  -1.00000
   0.10000,   0.40000,9223372036854775808.00000,   0.00000,  -1.00000,       nan,  -1.00000,  -1.00000,       nan,9223372036854775808.00000,  -1.00000,   0.00000,   0.00000,  -1.00000
   0.10000,   0.50000,9223372036854775808.00000,   0.00000,  -1.00000,       nan,  -1.00000,  -1.00000,       nan,9223372036854775808.00000,  -1.00000,   0.00000,   0.00000,  -1.00000
   0.10000,   0.60000,9223372036854775808.00000,   0.00000,  -1.00000,       nan,  -1.00000,  -1.00000,       nan,9223372036854775808.00000,  -1.00000,   0.00000,   0.00000,  -1.00000
   0.10000,   0.70000,9223372036854775808.00000,   0.00000,  -1.00000,       nan,  -1.00000,  -1.00000,       nan,9223372036854775808.00000,  -1.00000,   0.00000,   0.00000,  -1.00000
   0.10000,   0.80000,9223372036854775808.00000,   0.00000,  -1.00000,       nan,  -1.00000,  -1.00000,       nan,9223372036854775808.00000,  -1.00000,   0.00000,   0.00000,  -1.00000
   0.10000,   0.90000,9223372036854775808.00000,   0.00000,  -1.00000,       nan,  -1.00000,  -1.00000,       nan,9223372036854775808.00000,  -1.00000,   0.00000,   0.00000,  -1.00000
   0.10000,   1.00000,9223372036854775808.00000,   0.00000,  -1.00000,       nan,  -1.00000,  -1.00000,       nan,9223372036854775808.00000,  -1.00000,   0.00000,   0.00000,  -1.00000
   0.20000,   0.00000,9223372036854775808.00000,   0.00000,  -1.00000,  93.04780,  -1.00000,  93.04780,   0.00000,   1.00000,3659.00000,5000.00000,5000.00000,  -1.00000
   0.20000,   0.10000, 230.00000,1489.00000, 452.96575, 222.14680,1368.00000, 124.25748,   0.29780,   1.00000, 951.00000,5000.00000,3511.00000, 310.84419
   0.20000,   0.20000, 147.00000,3694.00000, 290.21684, 243.88780,1022.00000, 112.84686,   0.73880,   1.00000, 844.00000,5000.00000,1306.00000,  63.76584
   0.20000,   0.30000, 107.00000,4688.00000, 197.25747, 189.82640, 949.00000,  78.16987,   0.93760,   1.00000, 544.00000,5000.00000, 312.00000,   5.22142
   0.20000,   0.40000,  85.00000,4951.00000, 138.47203, 137.67340, 468.00000,  56.97959,   0.99020,   1.00000, 191.00000,5000.00000,  49.00000,   0.26358
   0.20000,   0.50000,  73.00000,4981.00000, 103.47802, 103.30640, 276.00000,  58.31579,   0.99620,   4.00000, 127.00000,5000.00000,  19.00000,   0.01104
   0.20000,   0.60000,  63.00000,4978.00000,  81.16231,  81.16820, 199.00000,  82.50000,   0.99560,  65.00000, 126.00000,5000.00000,  22.00000,   0.00000
   0.20000,   0.70000,  57.00000,4987.00000,  67.39543,  67.39640, 134.00000,  67.76923,   0.99740,  58.00000,  91.00000,5000.00000,  13.00000,   0.00000
   0.20000,   0.80000,  52.00000,4987.00000,  57.87788,  57.89000, 106.00000,  62.53846,   0.99740,  54.00000,  77.00000,5000.00000,  13.00000,   0.00000
   0.20000,   0.90000,  48.00000,4985.00000,  51.45296,  51.44980,  72.00000,  50.40000,   0.99700,  49.00000,  56.00000,5000.00000,  15.00000,   0.00000
   0.20000,   1.00000,  45.00000,4986.00000,  46.57280,  46.57200,  56.00000,  46.28571,   0.99720,  45.00000,  49.00000,5000.00000,  14.00000,   0.00000
   0.30000,   0.00000,9223372036854775808.00000,   0.00000,  -1.00000, 108.29160,  -1.00000, 108.29160,   0.00000,   1.00000,4816.00000,5000.00000,5000.00000,  -1.00000
   0.30000,   0.10000, 140.00000,3724.00000, 192.47718, 149.09220, 358.00000,  22.47335,   0.74480,   1.00000, 217.00000,5000.00000,1276.00000,  83.68314
   0.30000,   0.20000,  86.00000,4684.00000, 107.95581, 102.02700, 189.00000,  14.14557,   0.93680,   1.00000, 165.00000,5000.00000, 316.00000,   5.28288
   0.30000,   0.30000,  64.00000,4948.00000,  76.07357,  75.44100, 126.00000,  15.25000,   0.98960,   1.00000,  81.00000,5000.00000,  52.00000,   0.29386
   0.30000,   0.40000,  52.00000,4987.00000,  59.41107,  59.29580,  91.00000,  15.07692,   0.99740,   1.00000,  61.00000,5000.00000,  13.00000,   0.02847
   0.30000,   0.50000,  45.00000,4994.00000,  49.16900,  49.16180,  65.00000,  43.16667,   0.99880,   7.00000,  55.00000,5000.00000,   6.00000,   0.00000
   0.30000,   0.60000,  40.00000,4998.00000,  42.52841,  42.52900,  56.00000,  44.00000,   0.99960,  42.00000,  46.00000,5000.00000,   2.00000,   0.00000
   0.30000,   0.70000,  36.00000,4994.00000,  37.77493,  37.77480,  47.00000,  37.66667,   0.99880,  37.00000,  39.00000,5000.00000,   6.00000,   0.00000
   0.30000,   0.80000,  33.00000,4992.00000,  34.21955,  34.21900,  38.00000,  33.87500,   0.99840,  33.00000,  35.00000,5000.00000,   8.00000,   0.00000
   0.30000,   0.90000,  31.00000,4987.00000,  31.45739,  31.45620,  34.00000,  31.00000,   0.99740,  31.00000,  31.00000,5000.00000,  13.00000,   0.00000
   0.30000,   1.00000,  29.00000,5000.00000,  29.00000,  29.00000,  29.00000,  -1.00000,   1.00000,9223372036854775808.00000,  -1.00000,5000.00000,   0.00000,   0.00000
   0.40000,   0.00000,9223372036854775808.00000,   0.00000,  -1.00000, 105.03400,  -1.00000, 105.03400,   0.00000,   1.00000,5909.00000,5000.00000,5000.00000,  -1.00000
   0.40000,   0.10000,  91.00000,4144.00000, 119.09773, 100.38740, 200.00000,   9.80841,   0.82880,   1.00000, 131.00000,5000.00000, 856.00000,  32.81226
   0.40000,   0.20000,  57.00000,4848.00000,  67.97483,  66.05900,  93.00000,   4.95395,   0.96960,   1.00000,  70.00000,5000.00000, 152.00000,   1.27785
   0.40000,   0.30000,  43.00000,4980.00000,  49.14518,  48.98720,  67.00000,   9.65000,   0.99600,   1.00000,  51.00000,5000.00000,  20.00000,   0.06245
   0.40000,   0.40000,  35.00000,4996.00000,  39.25741,  39.25140,  56.00000,  31.75000,   0.99920,   5.00000,  42.00000,5000.00000,   4.00000,   0.00220
   0.40000,   0.50000,  31.00000,4995.00000,  33.24885,  33.24920,  39.00000,  33.60000,   0.99900,  32.00000,  36.00000,5000.00000,   5.00000,   0.00000
   0.40000,   0.60000,  27.00000,4994.00000,  29.18262,  29.18240,  33.00000,  29.00000,   0.99880,  28.00000,  30.00000,5000.00000,   6.00000,   0.00000
   0.40000,   0.70000,  25.00000,4992.00000,  26.19852,  26.19780,  29.00000,  25.75000,   0.99840,  25.00000,  26.00000,5000.00000,   8.00000,   0.00000
   0.40000,   0.80000,  23.00000,4993.00000,  24.03104,  24.03020,  25.00000,  23.42857,   0.99860,  23.00000,  24.00000,5000.00000,   7.00000,   0.00000
   0.40000,   0.90000,  22.00000,5000.00000,  22.05420,  22.05420,  23.00000,  -1.00000,   1.00000,9223372036854775808.00000,  -1.00000,5000.00000,   0.00000,   0.00000
   0.40000,   1.00000,  21.00000,5000.00000,  21.00000,  21.00000,  21.00000,  -1.00000,   1.00000,9223372036854775808.00000,  -1.00000,5000.00000,   0.00000,   0.00000
   0.50000,   0.00000, 659.00000,   2.00000, 958.00000,  65.29280,1257.00000,  64.93557,   0.00040,   1.00000,4481.00000,5000.00000,4998.00000, 901.50000
   0.50000,   0.10000,  62.00000,4040.00000,  79.36931,  65.09960, 119.00000,   5.04792,   0.80800,   1.00000,  55.00000,5000.00000, 960.00000,  13.41139
   0.50000,   0.20000,  40.00000,4805.00000,  46.37565,  44.66620,  63.00000,   2.54359,   0.96100,   1.00000,  53.00000,5000.00000, 195.00000,   0.44329
   0.50000,   0.30000,  31.00000,4970.00000,  34.32656,  34.16780,  44.00000,   7.86667,   0.99400,   1.00000,  34.00000,5000.00000,  30.00000,   0.02414
   0.50000,   0.40000,  26.00000,4989.00000,  27.92103,  27.88960,  33.00000,  13.63636,   0.99780,   1.00000,  29.00000,5000.00000,  11.00000,   0.00160
   0.50000,   0.50000,  22.00000,4993.00000,  23.93651,  23.93140,  27.00000,  20.28571,   0.99860,   2.00000,  24.00000,5000.00000,   7.00000,   0.00000
   0.50000,   0.60000,  20.00000,4997.00000,  21.16490,  21.16480,  23.00000,  21.00000,   0.99940,  21.00000,  21.00000,5000.00000,   3.00000,   0.00000
   0.50000,   0.70000,  18.00000,4998.00000,  19.18527,  19.18520,  21.00000,  19.00000,   0.99960,  19.00000,  19.00000,5000.00000,   2.00000,   0.00000
   0.50000,   0.80000,  17.00000,4993.00000,  17.58562,  17.58480,  19.00000,  17.00000,   0.99860,  17.00000,  17.00000,5000.00000,   7.00000,   0.00000
   0.50000,   0.90000,  16.00000,4994.00000,  16.16740,  16.16720,  17.00000,  16.00000,   0.99880,  16.00000,  16.00000,5000.00000,   6.00000,   0.00000
   0.50000,   1.00000,  15.00000,5000.00000,  15.00000,  15.00000,  15.00000,  -1.00000,   1.00000,9223372036854775808.00000,  -1.00000,5000.00000,   0.00000,   0.00000
   0.60000,   0.00000, 447.00000,  17.00000, 896.70588,  48.55860,1997.00000,  45.66506,   0.00340,   1.00000,3024.00000,5000.00000,4983.00000, 852.23529
   0.60000,   0.10000,  44.00000,4020.00000,  54.08881,  44.06300,  82.00000,   2.93673,   0.80400,   1.00000,  57.00000,5000.00000, 980.00000,   5.12836
   0.60000,   0.20000,  28.00000,4822.00000,  32.58316,  31.50040,  42.00000,   2.16854,   0.96440,   1.00000,  32.00000,5000.00000, 178.00000,   0.14994
   0.60000,   0.30000,  22.00000,4973.00000,  24.51076,  24.38720,  30.00000,   1.62963,   0.99460,   1.00000,   5.00000,5000.00000,  27.00000,   0.00804
   0.60000,   0.40000,  19.00000,4999.00000,  20.26145,  20.26140,  24.00000,  20.00000,   0.99980,  20.00000,  20.00000,5000.00000,   1.00000,   0.00080
   0.60000,   0.50000,  16.00000,4996.00000,  17.55184,  17.54820,  20.00000,  13.00000,   0.99920,   1.00000,  17.00000,5000.00000,   4.00000,   0.00000
   0.60000,   0.60000,  15.00000,4999.00000,  15.80816,  15.80800,  17.00000,  15.00000,   0.99980,  15.00000,  15.00000,5000.00000,   1.00000,   0.00000
   0.60000,   0.70000,  14.00000,4996.00000,  14.27502,  14.27480,  15.00000,  14.00000,   0.99920,  14.00000,  14.00000,5000.00000,   4.00000,   0.00000
   0.60000,   0.80000,  13.00000,4997.00000,  13.18091,  13.18080,  14.00000,  13.00000,   0.99940,  13.00000,  13.00000,5000.00000,   3.00000,   0.00000
   0.60000,   0.90000,  12.00000,4996.00000,  12.30765,  12.30740,  13.00000,  12.00000,   0.99920,  12.00000,  12.00000,5000.00000,   4.00000,   0.00000
   0.60000,   1.00000,  12.00000,5000.00000,  12.00000,  12.00000,  12.00000,  -1.00000,   1.00000,9223372036854775808.00000,  -1.00000,5000.00000,   0.00000,   0.00000
   0.70000,   0.00000, 147.00000,  48.00000, 478.43750,  30.18580,1821.00000,  25.84087,   0.00960,   1.00000,1273.00000,5000.00000,4952.00000, 440.37500
   0.70000,   0.10000,  30.00000,4292.00000,  36.86067,  31.98780,  56.00000,   2.44774,   0.85840,   1.00000,  39.00000,5000.00000, 708.00000,   1.91822
   0.70000,   0.20000,  20.00000,4872.00000,  22.80973,  22.26120,  30.00000,   1.38281,   0.97440,   1.00000,   6.00000,5000.00000, 128.00000,   0.03900
   0.70000,   0.30000,  16.00000,4986.00000,  17.56077,  17.52140,  21.00000,   3.50000,   0.99720,   1.00000,  18.00000,5000.00000,  14.00000,   0.00000
   0.70000,   0.40000,  14.00000,4995.00000,  14.80521,  14.80180,  17.00000,  11.40000,   0.99900,   1.00000,  14.00000,5000.00000,   5.00000,   0.00040
   0.70000,   0.50000,  12.00000,4999.00000,  13.04021,  13.04000,  15.00000,  12.00000,   0.99980,  12.00000,  12.00000,5000.00000,   1.00000,   0.00000
   0.70000,   0.60000,  11.00000,4999.00000,  11.91278,  11.91260,  13.00000,  11.00000,   0.99980,  11.00000,  11.00000,5000.00000,   1.00000,   0.00000
   0.70000,   0.70000,  10.00000,4999.00000,  11.00000,  10.99980,  12.00000,  10.00000,   0.99980,  10.00000,  10.00000,5000.00000,   1.00000,   0.00000
   0.70000,   0.80000,  10.00000,4999.00000,  10.00820,  10.00820,  11.00000,  10.00000,   0.99980,  10.00000,  10.00000,5000.00000,   1.00000,   0.00000
   0.70000,   0.90000,   9.00000,4999.00000,   9.95079,   9.95060,  10.00000,   9.00000,   0.99980,   9.00000,   9.00000,5000.00000,   1.00000,   0.00000
   0.70000,   1.00000,   9.00000,5000.00000,   9.00000,   9.00000,   9.00000,  -1.00000,   1.00000,9223372036854775808.00000,  -1.00000,5000.00000,   0.00000,   0.00000
   0.80000,   0.00000, 148.00000,  48.00000, 310.00000,  20.87100, 827.00000,  18.06846,   0.00960,   1.00000, 616.00000,5000.00000,4952.00000, 280.97917
   0.80000,   0.10000,  20.00000,4467.00000,  23.81710,  21.46520,  34.00000,   1.75422,   0.89340,   1.00000,  26.00000,5000.00000, 533.00000,   0.56615
   0.80000,   0.20000,  13.00000,4940.00000,  15.39980,  15.23420,  20.00000,   1.60000,   0.98800,   1.00000,  15.00000,5000.00000,  60.00000,   0.01053
   0.80000,   0.30000,  11.00000,4992.00000,  12.19551,  12.18220,  14.00000,   3.87500,   0.99840,   1.00000,  12.00000,5000.00000,   8.00000,   0.00000
   0.80000,   0.40000,  10.00000,5000.00000,  10.47380,  10.47380,  12.00000,  -1.00000,   1.00000,9223372036854775808.00000,  -1.00000,5000.00000,   0.00000,   0.00000
   0.80000,   0.50000,   9.00000,4997.00000,   9.36462,   9.36440,  11.00000,   9.00000,   0.99940,   9.00000,   9.00000,5000.00000,   3.00000,   0.00000
   0.80000,   0.60000,   8.00000,4996.00000,   8.90853,   8.90780,  10.00000,   8.00000,   0.99920,   8.00000,   8.00000,5000.00000,   4.00000,   0.00000
   0.80000,   0.70000,   8.00000,5000.00000,   8.00360,   8.00360,   9.00000,  -1.00000,   1.00000,9223372036854775808.00000,  -1.00000,5000.00000,   0.00000,   0.00000
   0.80000,   0.80000,   7.00000,5000.00000,   7.99760,   7.99760,   8.00000,  -1.00000,   1.00000,9223372036854775808.00000,  -1.00000,5000.00000,   0.00000,   0.00000
   0.80000,   0.90000,   7.00000,5000.00000,   7.00400,   7.00400,   8.00000,  -1.00000,   1.00000,9223372036854775808.00000,  -1.00000,5000.00000,   0.00000,   0.00000
   0.80000,   1.00000,   7.00000,5000.00000,   7.00000,   7.00000,   7.00000,  -1.00000,   1.00000,9223372036854775808.00000,  -1.00000,5000.00000,   0.00000,   0.00000
   0.90000,   0.00000,  50.00000, 148.00000, 107.89865,  12.05240, 199.00000,   9.12881,   0.02960,   1.00000, 241.00000,5000.00000,4852.00000,  88.03378
   0.90000,   0.10000,  10.00000,4758.00000,  13.36192,  12.77640,  20.00000,   1.26446,   0.95160,   1.00000,   6.00000,5000.00000, 242.00000,   0.11160
   0.90000,   0.20000,   8.00000,4980.00000,   9.32309,   9.29040,  12.00000,   1.15000,   0.99600,   1.00000,   2.00000,5000.00000,  20.00000,   0.00040
   0.90000,   0.30000,   7.00000,4996.00000,   7.90072,   7.89640,  10.00000,   2.50000,   0.99920,   1.00000,   7.00000,5000.00000,   4.00000,   0.00000
   0.90000,   0.40000,   6.00000,5000.00000,   7.00640,   7.00640,   8.00000,  -1.00000,   1.00000,9223372036854775808.00000,  -1.00000,5000.00000,   0.00000,   0.00000
   0.90000,   0.50000,   6.00000,4997.00000,   6.19632,   6.19620,   7.00000,   6.00000,   0.99940,   6.00000,   6.00000,5000.00000,   3.00000,   0.00000
   0.90000,   0.60000,   6.00000,5000.00000,   6.00060,   6.00060,   7.00000,  -1.00000,   1.00000,9223372036854775808.00000,  -1.00000,5000.00000,   0.00000,   0.00000
   0.90000,   0.70000,   6.00000,5000.00000,   6.00000,   6.00000,   6.00000,  -1.00000,   1.00000,9223372036854775808.00000,  -1.00000,5000.00000,   0.00000,   0.00000
   0.90000,   0.80000,   5.00000,4995.00000,   5.41161,   5.41120,   6.00000,   5.00000,   0.99900,   5.00000,   5.00000,5000.00000,   5.00000,   0.00000
   0.90000,   0.90000,   5.00000,5000.00000,   5.00020,   5.00020,   6.00000,  -1.00000,   1.00000,9223372036854775808.00000,  -1.00000,5000.00000,   0.00000,   0.00000
   0.90000,   1.00000,   5.00000,5000.00000,   5.00000,   5.00000,   5.00000,  -1.00000,   1.00000,9223372036854775808.00000,  -1.00000,5000.00000,   0.00000,   0.00000
