version 4
0.0009
config_files.three_type.deterministic_010_match
0.00089999999999999998,0.00090728338590411676,0.00091468507776976972,0.00092220797281554804,0.00092985506341769129,0.00093762944104176587,0.00094553430037059498,0.00095357294363993927,0.00096174878519422345,0.00097006535627542224,0.00097852631005913393,0.00098713542695282887,0.00099589662017231912,0.0010048139416136102,0.0010138915880385352,0.0010231339075938749,0.0010325454066850918,0.0010421307572273705,0.0010518948042982962,0.0010618425742183349,0.001071979283087239,0.0010823103458066142,0.0010928413856212266,0.001103578244214106,0.0011145269923932657,0.0011256939414108131,0.0011370856549584732,0.0011487089618870817,0.0011605709697014484,0.0011726790788862138,0.0011850409981229051,0.0011976647604634463,0.0012105587405308624,0.0012237316728239834,0.0012371926712095456,0.0012509512496923717,0.0012650173445623079,0.0012794013380253595,0.0012941140834361641,0.0013091669322596092,0.0013245717629011538,0.0013403410115584336,0.0013564877052611101,0.0013730254972818231,0.0013899687051187775,0.0014073323512700667,0.0014251322070415746,0.0014433848396545347,0.0014621076629457417,0.0014813189919835065,0.0015010381019559802,0.0015212852917260509,0.0015420819524890256,0.0015634506420164514,0.0015854151650223777,0.0016080006602478835,0.0016312336949267643,0.0016551423673709276,0.0016797564184995444,0.001705107353232762,0.0017312285727805147,0.001758155518981576,0.001785925831989794,0.001814579522766088,0.00184415916201939,0.0018747100874509869,0.0019062806313989522,0.0019389223712577206,0.0019726904053683986,0.002007643657445306,0.0020438452130321499,0.0020813626919773307,0.002120268661494474,0.0021606410950461147,0.002202563883073297,0.0022461274025131323,0.0022914291531261478,0.0023385744699272264,0.0023876773225166813,0.0024388612138890298,0.0024922601934144685,0.0025480200012139519,0.0026062993641722833,0.0026672714674658318,0.0027311256298611711,0.0027980692163425964,0.0028683298280701556,0.0029421578175346788,0.0030198291864182124,0.0031016489355432555,0.0031879549509900833,0.0032791225287402384,0.0033755696630597401,0.0034777632525726057,0.0035862264143179919,0.0037015471423278109,0.0038243886064833212,0.0039555014637678125,0.0040957386531950898,0.0042460732754493113,0.0044076203294268037,0.0045816633055616703,0.0047696869414688946,0.0049734178597096177,0.0051948753747605792,0.0054364355416233138,0.0057009126186060083,0.005991663677322596,0.006312724336778478,0.0066689868722828007,0.0070664368028730438,0.0075124713791885032,0.0080163346379736496,0.0085897213224781846,0.0092476302469356696,0.010009594169400416,0.010901491770364211,0.011958284101876762,0.013228264287178885,0.014779870508022281,0.016713013853669408,0.019178723498839732,0.022414931779413633,0.026815538103326594,0.033073157699790155,0.042499277243793154,0.057815148793635071,0.085331419034124514,0.14158592014998531,0.27278875798606339,0.56447201964546123,0.8873923221403216,0.98607579013673186
