version 4
0.008
config_files.three_type.deterministic_010_match
0.0080000000000000002,0.0085710630676730185,0.0092261311430743721,0.0099845754878869035,0.010872046537066119,0.011923175076764153,0.013185763369204512,0.014727497288427734,0.016647093208598859,0.01909360266511111,0.022301520312913846,0.026658411664543344,0.032844375992920269,0.042143986720207444,0.057214451936018089,0.084195376365860691,0.13911934893283417,0.2668287852898471,0.55315647008828417,0.8809635781361923,0.98509225566781133
