version 4
0.0001
config_files.three_type.many_deterministic
0.0001,0.00010008999099190081,0.00010018014401612378,0.00010027045951053532,0.0001003609379145805,0.00010045157966929017,0.00010054238521728824,0.00010063335500279882,0.00010072448947165331,0.00010081578907129802,0.00010090725425080112,0.00010099888546086015,0.00010109068315380946,0.00010118264778362762,0.00010127477980594488,0.00010136707967805057,0.00010145954785890088,0.00010155218480912631,0.00010164499099103942,0.00010173796686864234,0.00010183111290763464,0.00010192442957542109,0.00010201791734111934,0.00010211157667556793,0.00010220540805133418,0.00010229941194272194,0.00010239358882577982,0.00010248793917830908,0.0001025824634798717,0.00010267716221179859,0.00010277203585719757,0.0001028670849009617,0.00010296230982977773,0.00010305771113213389,0.00010315328929832869,0.00010324904482047918,0.00010334497819252933,0.00010344108991025849,0.0001035373804712901,0.00010363385037510006,0.00010373050012302543,0.00010382733021827316,0.00010392434116592879,0.00010402153347296517,0.00010411890764825129,0.00010421646420256126,0.0001043142036485831,0.00010441212650092778,0.00010451023327613815,0.00010460852449269825,0.00010470700067104204,0.00010480566233356307,0.00010490451000462325,0.00010500354421056233,0.00010510276547970744,0.00010520217434238192,0.00010530177133091539,0.0001054015569796528,0.00010550153182496419,0.00010560169640525419,0.00010570205126097174,0.00010580259693461974,0.00010590333397076479,0.00010600426291604719,0.00010610538431919068,0.00010620669873101221,0.00010630820670443235,0.00010640990879448496,0.0001065118055583274,0.00010661389755525075,0.00010671618534669012,0.00010681866949623466,0.00010692135056963814,0.00010702422913482923,0.00010712730576192196,0.00010723058102322631,0.00010733405549325883,0.00010743772974875302,0.00010754160436867039,0.00010764567993421095,0.00010774995702882422,0.00010785443623821991,0.00010795911815037914,0.0001080640033555653,0.00010816909244633504,0.00010827438601754971,0.00010837988466638626,0.00010848558899234868,0.00010859149959727936,0.00010869761708537045,0.00010880394206317521,0.00010891047513961983,0.00010901721692601482,0.0001091241680360668,0.00010923132908589021,0.00010933870069401913,0.00010944628348141919,0.00010955407807149939,0.00010966208509012438,0.00010977030516562636,0.0001098787389288173,0.00010998738701300124,0.00011009625005398649,0.0001102053286900982,0.00011031462356219061,0.00011042413531365969,0.0001105338645904558,0.00011064381204109633,0.00011075397831667842,0.00011086436407089182,0.00011097496996003186,0.00011108579664301242,0.00011119684478137889,0.00011130811503932152,0.00011141960808368841,0.00011153132458399899,0.00011164326521245744,0.00011175543064396602,0.00011186782155613868,0.00011198043862931453,0.00011209328254657194,0.00011220635399374194,0.00011231965365942236,0.00011243318223499157,0.00011254694041462276,0.00011266092889529793,0.0001127751483768221,0.00011288959956183762,0.00011300428315583875,0.00011311919986718573,0.00011323435040711984,0.00011334973548977774,0.00011346535583220619,0.00011358121215437707,0.0001136973051792022,0.00011381363563254838,0.00011393020424325262,0.00011404701174313702,0.00011416405886702443,0.00011428134635275361,0.00011439887494119476,0.00011451664537626534,0.00011463465840494522,0.00011475291477729297,0.0001148714152464615,0.00011499016056871399,0.0001151091515034402,0.00011522838881317235,0.00011534787326360142,0.0001154676056235939,0.0001155875866652077,0.00011570781716370908,0.00011582829789758926,0.00011594902964858125,0.00011607001320167653,0.00011619124934514238,0.00011631273887053861,0.00011643448257273507,0.00011655648124992874,0.00011667873570366143,0.00011680124673883685,0.00011692401516373883,0.00011704704179004857,0.00011717032743286289,0.00011729387291071191,0.00011741767904557737,0.00011754174666291066,0.0001176660765916513,0.00011779066966424518,0.00011791552671666343,0.00011804064858842077,0.0001181660361225944,0.00011829169016584309,0.000118417611568426,0.00011854380118422192,0.00011867025987074852,0.00011879698848918169,0.00011892398790437537,0.00011905125898488071,0.00011917880260296619,0.00011930661963463753,0.00011943471095965761,0.00011956307746156652,0.00011969172002770206,0.0001198206395492201,0.00011994983692111519,0.00012007931304224096,0.00012020906881533134,0.00012033910514702124,0.00012046942294786776,0.00012060002313237131,0.00012073090661899708,0.00012086207433019651,0.00012099352719242902,0.00012112526613618357,0.00012125729209600076,0.00012138960601049497,0.00012152220882237635,0.00012165510147847334,0.00012178828492975517,0.00012192176013135453,0.00012205552804259017,0.00012218958962699017,0.00012232394585231482,0.00012245859769057993,0.00012259354611808033,0.00012272879211541331,0.00012286433666750245,0.00012300018076362134,0.00012313632539741784,0.00012327277156693803,0.00012340952027465086,0.00012354657252747233,0.00012368392933679047,0.00012382159171849008,0.00012395956069297763,0.00012409783728520657,0.00012423642252470271,0.00012437531744558956,0.0001245145230866143,0.0001246540404911733,0.0001247938707073385,0.00012493401478788323,0.00012507447379030907,0.00012521524877687201,0.00012535634081460928,0.00012549775097536655,0.00012563948033582478,0.00012578152997752735,0.000125923900986908,0.00012606659445531815,0.00012620961147905479,0.00012635295315938872,0.00012649662060259235,0.00012664061491996872,0.00012678493722787954,0.0001269295886477745,0.00012707457030621973,0.00012721988333492761,0.0001273655288707857,0.00012751150805588677,0.00012765782203755797,0.00012780447196839161,0.00012795145900627505,0.00012809878431442086,0.00012824644906139789,0.00012839445442116199,0.00012854280157308695,0.00012869149170199594,0.00012884052599819297,0.00012898990565749445,0.00012913963188126146,0.0001292897058764317,0.00012944012885555183,0.00012959090203681022,0.00012974202664406954,0.00012989350390690043,0.00013004533506061404,0.000130197521346296,0.00013035006401084016,0.00013050296430698258,0.00013065622349333559,0.0001308098428344226,0.00013096382360071264,0.00013111816706865532,0.000131272874520716,0.00013142794724541154,0.00013158338653734573,0.00013173919369724541,0.00013189537003199662,0.0001320519168546814,0.00013220883548461384,0.00013236612724737792,0.00013252379347486416,0.0001326818355053076,0.00013284025468332522,0.00013299905235995434,0.0001331582298926909,0.00013331778864552783,0.00013347772998899445,0.00013363805530019514,0.00013379876596284913,0.00013395986336733011,0.00013412134891070649,0.0001342832239967814,0.00013444549003613352,0.00013460814844615796,0.00013477120065110747,0.00013493464808213398,0.00013509849217733047,0.00013526273438177271,0.00013542737614756224,0.00013559241893386874,0.00013575786420697326,0.00013592371344031142,0.0001360899681145172,0.00013625662971746691,0.00013642369974432348,0.00013659117969758142,0.00013675907108711102,0.00013692737543020457,0.00013709609425162136,0.00013726522908363411,0.0001374347814660749,0.00013760475294638216,0.00013777514507964735,0.00013794595942866276,0.0001381171975639686,0.00013828886106390166,0.00013846095151464358,0.00013863347051026943,0.00013880641965279689,0.00013897980055223617,0.00013915361482663927,0.00013932786410215072,0.00013950255001305808,0.00013967767420184284,0.00013985323831923208,0.00014002924402424998,0.00014020569298427024,0.00014038258687506844,0.00014055992738087528,0.00014073771619442955,0.00014091595501703242,0.00014109464555860123,0.00014127378953772424,0.00014145338868171576,0.00014163344472667132,0.00014181395941752366,0.00014199493450809916,0.00014217637176117427,0.00014235827294853306,0.00014254063985102427,0.00014272347425861977,0.00014290677797047292,0.00014309055279497753,0.00014327480054982702,0.00014345952306207466,0.00014364472216819334,0.00014383039971413696,0.00014401655755540125,0.00014420319755708555,0.00014439032159395504,0.00014457793155050344,0.00014476602932101627,0.0001449546168096343,0.00014514369593041795,0.0001453332686074115,0.000145523336774709,0.00014571390237651913,0.00014590496736723203,0.00014609653371148564,0.0001462886033842331,0.00014648117837081048,0.00014667426066700508,0.00014686785227912427,0.00014706195522406495,0.00014725657152938321,0.00014745170323336523,0.00014764735238509795,0.00014784352104454116,0.00014804021128259911,0.00014823742518119365,0.00014843516483333753,0.00014863343234320818,0.00014883222982622237,0.00014903155940911136,0.00014923142322999645,0.00014943182343846553,0.0001496327621956499,0.00014983424167430178,0.0001500362640588726,0.00015023883154559182,0.00015044194634254634,0.00015064561066976072,0.00015084982675927781,0.00015105459685524022,0.00015125992321397239,0.00015146580810406325,0.00015167225380644992,0.00015187926261450149,0.00015208683683410395,0.00015229497878374562,0.00015250369079460353,0.00015271297521063002,0.00015292283438864043,0.00015313327069840167,0.0001533442865227211,0.00015355588425753611,0.00015376806631200521,0.00015398083510859869,0.00015419419308319109,0.00015440814268515387,0.00015462268637744895,0.00015483782663672322,0.0001550535659534036,0.00015526990683179288,0.00015548685179016657,0.00015570440336087055,0.00015592256409041919,0.00015614133653959477,0.00015636072328354761,0.00015658072691189656,0.00015680135002883104,0.00015702259525321357,0.00015724446521868323,0.00015746696257375986,0.00015769008998194951,0.00015791385012185025,0.00015813824568725938,0.00015836327938728158,0.00015858895394643723,0.00015881527210477261,0.00015904223661797036,0.0001592698502574613,0.00015949811581053705,0.00015972703608046357,0.00015995661388659566,0.00016018685206449246,0.00016041775346603438,0.00016064932095954034,0.00016088155742988625,0.00016111446577862489,0.0001613480489241064,0.00016158230980159997,0.00016181725136341663,0.00016205287657903317,0.00016228918843521668,0.00016252618993615106,0.00016276388410356357,0.00016300227397685345,0.00016324136261322103,0.00016348115308779845,0.00016372164849378089,0.00016396285194255968,0.00016420476656385611,0.00016444739550585671,0.00016469074193534923,0.00016493480903786065,0.00016517960001779557,0.0001654251180985766,0.00016567136652278507,0.0001659183485523041,0.0001661660674684619,0.00016641452657217723,0.00016666372918410557,0.0001669136786447868,0.00016716437831479412,0.00016741583157488493,0.00016766804182615161,0.00016792101249017558,0.00016817474700918104,0.00016842924884619113,0.0001686845214851853,0.00016894056843125784,0.00016919739321077782,0.0001694549993715515,0.00016971339048298443,0.00016997257013624654,0.00017023254194443823,0.0001704933095427579,0.00017075487658867099,0.00017101724676208077,0.00017128042376550072,0.00017154441132422819,0.00017180921318651988,0.00017207483312376914,0.00017234127493068454,0.00017260854242547017,0.00017287663945000784,0.000173145569870041,0.00017341533757535973,0.00017368594647998854,0.00017395740052237487,0.00017422970366557996,0.00017450285989747147,0.00017477687323091766,0.0001750517477039837,0.00017532748738012942,0.00017560409634840952,0.00017588157872367515,0.00017615993864677752,0.00017643918028477362,0.00017671930783113375,0.00017700032550595107,0.00017728223755615315,0.00017756504825571548,0.00017784876190587702,0.00017813338283535806,0.00017841891540057979,0.00017870536398588601,0.00017899273300376754,0.0001792810268950882,0.0001795702501293129,0.00017986040720473852,0.00018015150264872644,0.00018044354101793785,0.00018073652689857092,0.00018103046490660019,0.00018132535968801898,0.00018162121591908356,0.00018191803830655949,0.00018221583158797153,0.00018251460053185444,0.00018281434993800769,0.00018311508463775123,0.00018341680949418527,0.00018371952940245194,0.00018402324928999878,0.00018432797411684654,0.00018463370887585802,0.00018494045859301022,0.00018524822832766979,0.00018555702317287016,0.0001858668482555921,0.00018617770873704701,0.00018648960981296279,0.00018680255671387291,0.00018711655470540813,0.00018743160908859147,0.00018774772520013553,0.00018806490841274376,0.00018838316413541384,0.00018870249781374499,0.00018902291493024743,0.00018934442100465581,0.00018966702159424579,0.00018999072229415319,0.00019031552873769714,0.00019064144659670595,0.00019096848158184687,0.00019129663944295885,0.00019162592596938893,0.00019195634699033197,0.00019228790837517391,0.0001926206160338387,0.00019295447591713874,0.00019328949401712888,0.00019362567636746426,0.0001939630290437619,0.00019430155816396581,0.00019464126988871623,0.00019498217042172251,0.00019532426601014011,0.00019566756294495119,0.00019601206756134963,0.00019635778623913023,0.00019670472540308116,0.00019705289152338156,0.00019740229111600305,0.00019775293074311481,0.00019810481701349432,0.00019845795658294114,0.00019881235615469605,0.00019916802247986414,0.0001995249623578425,0.0001998831826367532,0.00020024269021387967,0.00020060349203610884,0.00020096559510037748,0.00020132900645412387,0.00020169373319574375,0.00020205978247505181,0.00020242716149374758,0.00020279587750588704,0.00020316593781835915,0.00020353734979136726,0.00020391012083891609,0.00020428425842930413,0.00020465977008562124,0.00020503666338625209,0.00020541494596538459,0.00020579462551352458,0.00020617570977801553,0.00020655820656356462,0.00020694212373277449,0.00020732746920668047,0.00020771425096529481,0.00020810247704815569,0.00020849215555488368,0.00020888329464574312,0.00020927590254221141,0.00020966998752755295,0.00021006555794740098,0.00021046262221034528,0.00021086118878852668,0.00021126126621823845,0.00021166286310053391,0.00021206598810184226,0.00021247064995458999,0.00021287685745783054,0.00021328461947788026,0.00021369394494896211,0.00021410484287385723,0.00021451732232456285,0.00021493139244295914,0.00021534706244148269,0.00021576434160380827,0.0002161832392855386,0.00021660376491490179,0.00021702592799345734,0.00021744973809681011,0.00021787520487533279,0.00021830233805489644,0.00021873114743761014,0.00021916164290256907,0.00021959383440661178,0.00022002773198508572,0.00022046334575262234,0.00022090068590392123,0.00022133976271454392,0.0002217805865417163,0.00022222316782514163,0.00022266751708782269,0.00022311364493689362,0.00022356156206446238,0.00022401127924846266,0.0002244628073535167,0.00022491615733180785,0.00022537134022396449,0.0002258283671599541,0.00022628724935998756,0.00022674799813543665,0.00022721062488976012,0.000227675141119443,0.00022814155841494627,0.00022860988846166888,0.00022908014304092106,0.00022955233403091073,0.00023002647340773978,0.00023050257324641566,0.00023098064572187353,0.00023146070311001122,0.00023194275778873802,0.00023242682223903558,0.00023291290904603286,0.00023340103090009433,0.00023389120059792118,0.00023438343104366735,0.00023487773525006909,0.00023537412633958886,0.00023587261754557388,0.0002363732222134292,0.00023687595380180571,0.00023738082588380336,0.00023788785214819014,0.0002383970464006354,0.00023890842256496075,0.00023942199468440526,0.00023993777692290865,0.00024045578356640993,0.00024097602902416261,0.00024149852783006821,0.00024202329464402607,0.00024255034425330085,0.00024307969157390841,0.00024361135165201927,0.0002441453396653807,0.00024468167092475744,0.00024522036087539119,0.00024576142509847974,0.00024630487931267566,0.00024685073937560421,0.00024739902128540235,0.00024794974118227709,0.00024850291535008593,0.00024905856021793723,0.00024961669236181309,0.00025017732850621277,0.0002507404855258198,0.00025130618044719004,0.00025187443045046333,0.00025244525287109886,0.00025301866520163247,0.00025359468509345977,0.00025417333035864209,0.00025475461897173828,0.00025533856907166027,0.0002559251989635557,0.00025651452712071541,0.00025710657218650727,0.0002577013529763369,0.00025829888847963612,0.00025889919786187845,0.0002595023004666225,0.00026010821581758423,0.00026071696362073825,0.00026132856376644831,0.00026194303633162846,0.00026256040158193308,0.00026318067997397953,0.00026380389215760155,0.00026443005897813451,0.00026505920147873322,0.00026569134090272318,0.00026632649869598468,0.00026696469650937141,0.00026760595620116466,0.00026825029983956132,0.00026889774970519835,0.00026954832829371458,0.00027020205831834851,0.00027085896271257417,0.00027151906463277625,0.00027218238746096228,0.00027284895480751676,0.0002735187905139947,0.00027419191865595563,0.00027486836354584062,0.00027554814973589076,0.00027623130202110994,0.00027691784544227029,0.00027760780528896369,0.00027830120710269806,0.00027899807668004022,0.00027969844007580576,0.00028040232360629716,0.0002811097538525903,0.00028182075766387105,0.00028253536216082264,0.00028325359473906314,0.00028397548307263718,0.00028470105511755971,0.00028543033911541417,0.00028616336359700659,0.00028690015738607475,0.00028764074960305549,0.00028838516966890994,0.00028913344730900837,0.00028988561255707433,0.0002906416957591917,0.00029140172757787387,0.00029216573899619588,0.00029293376132199248,0.00029370582619212194,0.00029448196557679672,0.00029526221178398376,0.00029604659746387363,0.00029683515561342065,0.00029762791958095692,0.00029842492307087818,0.00029922620014840684,0.00030003178524442984,0.00030084171316041553,0.00030165601907340976,0.00030247473854111358,0.00030329790750704239,0.00030412556230576974,0.000304957739668257,0.00030579447672727058,0.00030663581102288761,0.0003074817805080922,0.0003083324235544654,0.00030918777895796789,0.00031004788594481998,0.00031091278417747935,0.00031178251376071716,0.00031265711524779876,0.00031353662964676604,0.00031442109842682616,0.00031531056352484909,0.00031620506735197357,0.00031710465280032705,0.00031800936324985908,0.00031891924257529213,0.0003198343351531907,0.00032075468586915246,0.00032168034012512384,0.00032261134384684086,0.00032354774349139983,0.00032448958605495957,0.0003254369190805774,0.00032638979066618303,0.00032734824947269146,0.00032831234473225884,0.00032928212625668395,0.00033025764444595871,0.00033123895029696978,0.00033222609541235551,0.0003332191320095205,0.00033421811292981183,0.00033522309164786036,0.00033623412228108953,0.00033725125959939618,0.00033827455903500785,0.00033930407669251683,0.00034033986935909957,0.00034138199451492113,0.00034243051034373191,0.00034348547574365805,0.00034454695033819138,0.00034561499448738302,0.00034668966929924446,0.00034777103664136103,0.0003488591591527225,0.00034995410025577458,0.00035105592416869824,0.00035216469591791951,0.00035328048135085596,0.00035440334714890629,0.00035553336084068475,0.00035667059081551062,0.00035781510633715511,0.00035896697755785178,0.00036012627553257852,0.00036129307223361432,0.00036246744056537921,0.00036364945437956329,0.00036483918849055026,0.00036603671869114374,0.00036724212176860306,0.00036845547552099412,0.00036967685877386543,0.00037090635139725261,0.00037214403432302476,0.00037338998956257485,0.00037464430022486541,0.00037590705053483817,0.00037717832585219417,0.00037845821269055449,0.00037974679873701021,0.00038104417287207156,0.00038235042519002359,0.00038366564701970235,0.00038498993094569534,0.00038632337082998347,0.00038766606183402997,0.00038901810044132971,0.00039037958448042911,0.00039175061314842766,0.00039313128703497501,0.00039452170814677408,0.00039592197993260216,0.00039733220730886454,0.00039875249668569268,0.00040018295599360157,0.00040162369471071819,0.00040307482389059839,0.00040453645619064493,0.00040600870590114198,0.00040749168897492334,0.00040898552305768777,0.0004104903275189814,0.00041200622348386149,0.0004135333338652602,0.00041507178339706769,0.00041662169866795004,0.00041818320815592471,0.00041975644226371179,0.00042134153335488022,0.00042293861579081177,0.0004245478259685042,0.00042616930235923466,0.00042780318554810784,0.00042944961827451073,0.00043110874547350083,0.00043278071431814967,0.00043446567426287056,0.00043616377708775682,0.00043787517694395461,0.00043960003040010464,0.00044133849648987704,0.00044309073676063128,0.00044485691532323353,0.00044663719890306226,0.00044843175689223471,0.00045024076140309067,0.00045206438732296712,0.00045390281237030032,0.00045575621715209376,0.00045762478522279126,0.00045950870314459324,0.00046140816054926053,0.0004633233502014461,0.00046525446806360167,0.00046720171336250138,0.00046916528865743363,0.00047114539991010657,0.00047314225655631972,0.00047515607157945532,0.00047718706158583898,0.00047923544688202932,0.0004813014515540929,0.00048338530354892538,0.00048548723475767765,0.00048760748110135459,0.00048974628261865027,0.00049190388355608845,0.00049408053246054022,0.00049627648227419001,0.00049849199043202914,0.00050072731896195143,0.00050298273458753741,0.00050525850883360651,0.00050755491813462758,0.00050987224394607815,0.0005122107728588452,0.00051457079671676613,0.00051695261273740887,0.00051935652363619886,0.00052178283775399783,0.00052423186918824916,0.00052670393792780736,0.00052919936999156847,0.00053171849757103367,0.00053426165917693066,0.00053682919979003061,0.00053942147101630278,0.00054203883124654946,0.00054468164582067752,0.00054735028719675688,0.00055004513512503907,0.00055276657682709889,0.00055551500718027734,0.0005582908289076113,0.00056109445277344194,0.00056392629778489545,0.00056678679139945151,0.00056967636973880432,0.0005725954778092497,0.00057554456972882444,0.00057852410896144422,0.00058153456855829125,0.00058457643140671434,0.00058765019048691758,0.00059075634913671889,0.00059389542132468162,0.00059706793193192405,0.00060027441704293169,0.0006035154242457131,0.00060679151294164421,0.00061010325466537318,0.00061345123341516653,0.00061683604599409509,0.00062025830236247972,0.00062371862600202766,0.0006272176542921193,0.00063075603889871617,0.00063433444617638801,0.00063795355758397999,0.00064161407011445752,0.00064531669673950013,0.00064906216686943608,0.00065285122682913585,0.00065668464035051972,0.00066056318908235196,0.00066448767311803848,0.00066845891154217174,0.00067247774299660304,0.00067654502626685856,0.00068066164088976459,0.00068482848778316733,0.00068904648989870441,0.00069331659289860589,0.00069763976585756899,0.00070201700199079456,0.00070644931940932489,0.00071093776190388972,0.00071548339975851833,0.00072008733059524476,0.00072475068025129911,0.00072947460369025168,0.00073426028594864999,0.00073910894311977188,0.00074402182337620151,0.0007490002080330245,0.00075404541265353608,0.00075915878819945743,0.00076434172222775967,0.00076959564013631243,0.00077492200646069932,0.0007803223262246537,0.00078579814634673257,0.00079135105710596127,0.00079698269366936404,0.000802694737684434,0.00080848891893979503,0.00081436701709747326,0.00082033086350040798,0.00082638234305903297,0.00083252339622099519,0.00083875602102830406,0.00084508227526647523,0.00085150427871048763,0.00085802421547268698,0.00086464433645805762,0.00087136696193263342,0.00087819448421116899,0.00088512937047057253,0.00089217416569600978,0.00089933149576703069,0.00090660407069152846,0.00091399468799585278,0.00092150623627993366,0.00092914169894684645,0.00093690415811687518,0.00094479679873679667,0.00095282291289582413,0.00096098590436041883,0.00096928929334101296,0.00097773672150458122,0.00098633195724795713,0.00099507890124783584,0.0010039815923045257,0.00101304421349772,0.0010222710986738698,0.0010316667392861619,0.0010412357916096233,0.0010509830843555387,0.0010609136267111759,0.0010710326168327305,0.0010813454508215546,0.0010918577322159935,0.00110257528203367,0.0011135041494017568,0.0011246506228157357,0.0011360212420703491,0.0011476228109099577,0.001159462410449347,0.0011715474134201763,0.001183885499302862,0.0011964846704086384,0.0012093532689820233,0.0012224999953999024,0.0012359339275499885,0.0012496645414786509,0.0012637017334059958,0.0012780558432148091,0.0012927376795295656,0.0013077585465122597,0.0013231302725134988,0.0013388652407301733,0.0013549764220352563,0.0013714774101610762,0.0013883824594348509,0.0014057065252847079,0.0014234653077559148,0.0014416752983010335,0.0014603538301343946,0.0014795191324710371,0.0014991903890034905,0.0015193878010069336,0.0015401326555048499,0.001561447398973941,0.0015833557171194231,0.0016058826213107319,0.0016290545423339668,0.0016528994321922275,0.0016774468747695237,0.001702728206269591,0.0017287766464493899,0.001755627441790218,0.0017833180218894443,0.0018118881705155793,0.0018413802129517013,0.0018718392214609086,0.0019033132409466201,0.0019358535371553408,0.0019695148700858344,0.0020043557956336716,0.0020404389989222339,0.0020778316632605555,0.0021166058792369559,0.0021568390991197348,0.002198614642509734,0.0022420222600953747,0.0022871587634244908,0.0023341287298599303,0.0023830452933654347,0.0024340310335212996,0.0024872189772528154,0.0025427537302391127,0.0026007927579431763,0.0026615078397742849,0.0027250867241978725,0.0027917350178156596,0.0028616783477661109,0.0029351648445149156,0.0030124680015651399,0.0030938899802625298,0.0031797654422771461,0.0032704660102518403,0.0033664054794904489,0.0034680459316859514,0.0035759049372409415,0.0036905640779441775,0.003812679079631369,0.0039429919190190734,0.0040823453656623669,0.0042317005465104113,0.0043921582872980085,0.0045649852066816689,0.0047516458363422685,0.0049538424428769096,0.0051735647780600897,0.0054131527457404209,0.0056753760393879827,0.0059635363142747384,0.0062815996266022836,0.0066343700311798587,0.0070277199052444844,0.0074688996057801407,0.0079669598645914184,0.0085333372236048172,0.0091826798545940735,0.0099340354536940258,0.010812597620608301,0.011852336874163547,0.013100075440034808,0.014621999436828056,0.016514447718103124,0.018922544372997091,0.02207397374604745,0.026343790047128009,0.032387456835710954,0.041436797900290735,0.05602412690452039,0.081957295724489593,0.13429193246116469,0.2551824549456142,0.53039844313131779,0.86704005936579054,0.98287884153766769
