version 4
0.007
config_files.three_type.deterministic_010_match
0.0070000000000000001,0.0074377199654952139,0.0079316480840788076,0.0084930387028661954,0.009136292912959117,0.0098801171419379379,0.01074922383932903,0.011776889225483814,0.013008906856889385,0.01450989197775001,0.016373699244071397,0.018741360789840587,0.021833489349210061,0.026012200226722019,0.031907603188856222,0.040697553625707192,0.054787475505974036,0.079650718031671619,0.12936249326871493,0.24332651800483077,0.50636817975026738,0.85076185453001185,0.98013908224870716
