version 4
0.04
config_files.three_type.deterministic_010_match
0.040000000000000001,0.05362776025236593,0.07750509263750123,0.12482024590191011,0.23244715386531639,0.48357630788778921,0.83365931355064804,0.97707192371967599
