version 4
0.0018
config_files.three_type.deterministic_010_match
0.0018,0.0018291066632497,0.0018591613633054756,0.0018902108907769054,0.0019223051518929566,0.0019554974311740579,0.0019898446810430871,0.0020254078416447907,0.0020622521946034324,0.0021004477549827444,0.0021400697063339706,0.0021811988844431789,0.0022239223162374318,0.0022683338213046237,0.0023145346846523392,0.0023626344107120158,0.002412751570228661,0.0024650147536159051,0.0025195636466658743,0.0025765502472632758,0.0026361402450624802,0.0026985145900693757,0.0027638712808815257,0.0028324274091764651,0.0029044215041460902,0.0029801162292697457,0.0030598014945018128,0.0031437980601381446,0.0032324617249874358,0.003326188211876982,0.0034254188891036826,0.0035306474986969783,0.0036424281032755418,0.0037613845155051217,0.0038882215412696739,0.0040237384544938842,0.004168845234728916,0.0043245822472833921,0.0044921442426009098,0.0046729098147076757,0.0048684778134272149,0.0050807126884511774,0.0053118014088225987,0.0055643255279517615,0.0058413532701561549,0.0061465583793592279,0.006484375170812004,0.0068602031968474989,0.0072806808719193643,0.0077540564324275422,0.0082906986193658737,0.0089038116854948651,0.0096104553810266672,0.010433030622268849,0.011401494491972534,0.012556750453198807,0.013955994067492416,0.015681433578239496,0.017855083541900463,0.02066502677618598,0.024414582001180393,0.029620325757981243,0.037222678597564174,0.049080408382248072,0.069258856258467227,0.10777710245006433,0.19222448645697193,0.39381326614433904,0.74697940790826023,0.95798259343172343
